^D:\ASTRIK\C++\REPOS_\PRACTICES\PRACTICE 02.02\MAIN.CPP
D:\ASTRIK\C++\REPOS_\PRACTICES\PRACTICE 02.02\X64\DEBUG\VC142.PDB
D:\ASTRIK\C++\REPOS_\PRACTICES\PRACTICE 02.02\X64\DEBUG\VC142.IDB
D:\ASTRIK\C++\REPOS_\PRACTICES\PRACTICE 02.02\X64\DEBUG\MAIN.OBJ
